Introducing {aggreCAT}: Mathematical aggregation of expert judgments – R Consortium
…
{aggreCAT} v1.1.0 is available on CRAN while a development version is maintained on GitHub (metamelb-repliCATS/aggreCAT). For the walkthrough below we make use of the {aggreCAT}’s inbuilt datasets, which were originally published in Wintle et al. (2023)7. This study served as a pilot of the repliCATS approach to the SCORE program and consists of evaluations by 25 experts of 25 published papers that underwent attempted replication.

Load Packages

library(aggreCAT)
library(tidyverse)

Look at the data object

All aggregation methods require a data frame input of the elicited data, and we’ve included data_ratings in the package as an example dataset. Let’s take a look:

data_ratings

# A tibble: 6,880 × 7
   round   paper_id user_name  question           element           value group
   <chr>   <chr>    <chr>      <chr>              <chr>             <dbl> <chr>
 1 round_1 100      7l8m7dmjdb direct_replication three_point_lower    30 UOM1 
 2 round_1 100      7l8m7dmjdb involved_binary    binary_question      -1 UOM1 
 3 round_1 100      7l8m7dmjdb belief_binary      binary_question      -1 UOM1 
 4 round_1 100      7l8m7dmjdb direct_replication three_point_best     40 UOM1 
 5 round_1 100      7l8m7dmjdb direct_replication three_point_upper    45 UOM1 
 6 round_1 100      7l8m7dmjdb comprehension      likert_binary         5 UOM1 
 7 round_1 100      bvpgcjm09w direct_replication three_point_lower    60 UOM1 
 8 round_1 100      bvpgcjm09w direct_replication three_point_upper    90 UOM1 
 9 round_1 100      bvpgcjm09w direct_replication three_point_best     75 UOM1 
10 round_1 100      bvpgcjm09w comprehension      likert_binary         7 UOM1 
# ℹ 6,870 more rows
…
Once you have a dataset in the correct format, conducting the mathematical aggregation is straightforward. All aggregation methods are grouped by type into a series of wrapper functions with a *WAgg() naming convention (where WAgg is short for ‘weighted aggregation’ and * indicating the group). To start with, let’s just do a simple arithmetic mean aggregation with the AverageWAgg() function:

AverageWAgg(expert_judgements = data_ratings)

── AverageWAgg: ArMean ─────────────────────────────────────────────────────────

── Pre-Processing Options ──

ℹ Round Filter: TRUE

ℹ Three Point Filter: TRUE

ℹ Percent Toggle: FALSE

# A tibble: 25 × 4
   method paper_id    cs n_experts
   <chr>  <chr>    <dbl>     <int>
 1 ArMean 100       70.6        25
 2 ArMean 102       30.8        25
 3 ArMean 103       62.5        25
 4 ArMean 104       47.1        25
 5 ArMean 106       36.5        25
 6 ArMean 108       71.8        25
 7 ArMean 109       72.5        25
 8 ArMean 116       62.6        25
 9 ArMean 118       54.8        25
10 ArMean 133       59.9        25
# ℹ 15 more rows
…
AverageWAgg(expert_judgements = data_ratings,
            type = "Median")

── AverageWAgg: Median ─────────────────────────────────────────────────────────

── Pre-Processing Options ──

ℹ Round Filter: TRUE

ℹ Three Point Filter: TRUE

ℹ Percent Toggle: FALSE

# A tibble: 25 × 4
   method paper_id    cs n_experts
   <chr>  <chr>    <dbl>     <int>
 1 Median 100         75        25
 2 Median 102         30        25
 3 Median 103         70        25
 4 Median 104         50        25
 5 Median 106         30        25
 6 Median 108         70        25
 7 Median 109         75        25
 8 Median 116         69        25
 9 Median 118         53        25
10 Median 133         65        25
# ℹ 15 more rows
…
